ostapsky             2017-08-18 18:26:57 1
ostapsky             2017-08-18 18:27:06 0
ostapsky             2017-08-18 18:27:48 1
ostapsky             2017-08-18 18:27:51 0
pavlosh              2017-08-19 10:30:42 1
pavlosh              2017-08-19 10:30:46 0
ostapsky             2017-08-19 12:57:26 1
ostapsky             2017-08-19 12:57:30 0
ostapsky             2017-08-19 15:17:14 1
ostapsky             2017-08-19 15:17:16 0
ostapsky             2017-08-19 15:23:55 1
ostapsky             2017-08-19 15:23:59 0
ostapsky             2017-08-19 15:34:13 1
ostapsky             2017-08-19 15:34:16 0
ostapsky             2017-08-29 14:50:30 1
ostapsky             2017-08-29 14:50:33 0
ostapsky             2017-08-30 14:30:20 1
ostapsky             2017-08-30 14:30:25 0
ostapsky             2017-08-30 14:45:43 1
ostapsky             2017-08-30 14:45:56 0
ostapsky             2017-08-30 14:46:00 1
ostapsky             2017-08-30 14:46:16 0
ostapsky             2017-08-30 16:27:35 1
ostapsky             2017-08-30 16:37:01 0
ostapsky             2017-08-30 16:37:23 1
ostapsky             2017-08-30 16:46:28 0
whitebike            2017-09-01 12:22:19 1
whitebike            2017-09-01 13:27:06 0
nikopol              2017-09-01 15:17:02 1
nikopol              2017-09-01 15:39:14 0
guest                2017-09-01 15:51:06 1
guest                2017-09-01 19:30:38 0
coockie              2017-09-01 19:31:34 1
coockie              2017-09-01 19:54:17 0
whitebike            2017-09-02 13:17:18 1
whitebike            2017-09-02 13:32:40 0
whitebike            2017-09-02 14:14:00 1
whitebike            2017-09-02 15:35:44 0
whitebike            2017-09-02 17:40:59 1
whitebike            2017-09-02 17:46:02 0
whitebike            2017-09-02 17:52:40 1
whitebike            2017-09-02 17:55:06 0
whitebike            2017-09-02 18:20:34 1
whitebike            2017-09-02 18:59:27 0
ostapsky             2017-09-06 16:33:24 1
ostapsky             2017-09-06 17:38:52 0
coockie              2017-08-19 16:27:46 1
coockie              2017-08-19 17:22:23 0
coockie              2017-08-19 17:35:29 1
coockie              2017-08-19 17:46:26 0
coockie              2017-08-19 18:15:23 1
coockie              2017-08-19 18:17:04 0
doroshenko           2017-08-19 18:33:34 1
doroshenko           2017-08-19 18:40:09 0
ostapsky             2017-09-08 11:51:03 1
ostapsky             2017-09-08 13:34:25 0
artsin               2017-09-09 13:44:45 1
artsin               2017-09-09 14:23:17 0
whitebike            2017-09-11 14:24:44 1
whitebike            2017-09-11 14:27:00 0
whitebike            2017-09-11 14:36:51 1
whitebike            2017-09-11 15:12:36 0
whitebike            2017-09-11 16:54:32 1
whitebike            2017-09-11 17:12:59 0
whitebike            2017-09-11 18:31:42 1
unknown              2017-09-11 18:52:05 0
coockie              2017-09-11 19:56:50 1
coockie              2017-09-11 20:35:13 0
coockie              2017-09-12 17:17:06 1
coockie              2017-09-12 18:20:43 0
coockie              2017-09-12 18:23:40 1
coockie              2017-09-12 18:59:54 0
coockie              2017-09-12 19:04:37 1
coockie              2017-09-12 19:17:48 0
homsa                2017-09-19 14:45:01 1
homsa                2017-09-19 15:15:43 0
homsa                2017-09-19 15:40:25 1
homsa                2017-09-19 17:22:59 0
doroshenko           2017-09-24 11:24:00 1
doroshenko           2017-09-24 11:32:17 0
whitebike            2017-09-24 15:16:54 1
whitebike            2017-09-24 16:36:12 0
whitebike            2017-09-24 17:32:25 1
whitebike            2017-09-24 17:53:59 0
whitebike            2017-09-25 14:17:44 1
whitebike            2017-09-25 14:21:26 0
whitebike            2017-09-25 14:29:11 1
whitebike            2017-09-25 15:37:49 0
whitebike            2017-09-25 15:41:35 1
whitebike            2017-09-25 15:54:00 0
whitebike            2017-09-25 15:58:48 1
whitebike            2017-09-25 16:43:17 0
ostapsky             2017-09-27 16:00:40 1
ostapsky             2017-09-27 16:00:45 0
ostapsky             2017-09-28 12:33:49 1
ostapsky             2017-09-28 13:43:06 0
whitebike            2017-10-02 18:50:46 1
whitebike            2017-10-02 18:56:10 0
whitebike            2017-10-02 19:10:21 1
whitebike            2017-10-02 19:52:03 0
whitebike            2017-10-03 15:34:46 1
whitebike            2017-10-03 16:52:36 0
whitebike            2017-10-03 17:11:42 1
whitebike            2017-10-03 17:15:03 0
whitebike            2017-10-03 17:18:14 1
whitebike            2017-10-03 17:25:55 0
artsin               2017-10-05 09:49:50 1
ostapsky             2017-10-05 12:39:57 0
ostapsky             2017-10-09 14:46:27 1
unknown              2017-10-09 15:44:32 0
ostapsky             2017-10-10 16:40:51 1
ostapsky             2017-10-10 17:34:10 0
nikopol              2017-10-13 11:25:47 1
nikopol              2017-10-13 11:25:49 0
nikopol              2017-10-13 11:25:51 1
nikopol              2017-10-13 11:25:55 0
nikopol              2017-10-13 12:20:44 1
nikopol              2017-10-13 13:19:22 0
nikopol              2017-10-13 13:24:06 1
nikopol              2017-10-13 14:04:31 0
nikopol              2017-10-20 17:54:44 1
nikopol              2017-10-20 17:56:59 0
coockie              2017-10-21 15:34:35 1
coockie              2017-10-21 17:40:04 0
coockie              2017-10-22 12:09:16 1
coockie              2017-10-22 12:35:32 0
coockie              2017-10-22 12:46:36 1
coockie              2017-10-22 13:00:12 0
whitebike            2017-10-23 14:20:57 1
whitebike            2017-10-23 15:16:00 0
whitebike            2017-10-25 15:43:34 1
whitebike            2017-10-25 17:41:14 0
ostapsky             2017-10-26 11:32:43 1
ostapsky             2017-10-26 11:49:20 0
ostapsky             2017-10-26 14:45:36 1
ostapsky             2017-10-26 15:15:16 0
whitebike            2017-10-28 12:00:58 1
whitebike            2017-10-28 12:48:49 0
volmir               2017-11-01 17:33:18 1
volmir               2017-11-01 17:33:32 0
whitebike            2017-11-02 17:42:43 1
whitebike            2017-11-02 18:49:06 0
whitebike            2017-11-09 17:48:58 1
whitebike            2017-11-09 20:38:04 0
coockie              2017-11-14 19:38:24 1
coockie              2017-11-14 20:01:02 0
coockie              2017-11-14 20:09:01 1
coockie              2017-11-14 20:35:24 0
whitebike            2017-11-15 15:41:38 1
whitebike            2017-11-15 16:45:07 0
whitebike            2017-11-15 16:47:49 1
whitebike            2017-11-15 17:45:28 0
whitebike            2017-11-15 17:50:10 1
whitebike            2017-11-15 18:28:33 0
whitebike            2017-11-15 18:51:21 1
whitebike            2017-11-15 19:32:21 0
whitebike            2017-11-16 12:34:07 1
whitebike            2017-11-16 12:34:10 0
whitebike            2017-11-16 12:38:21 1
whitebike            2017-11-16 14:07:08 0
whitebike            2017-11-16 14:16:47 1
whitebike            2017-11-16 14:24:06 0
whitebike            2017-11-16 14:30:27 1
whitebike            2017-11-16 14:36:57 0
whitebike            2017-11-16 14:51:55 1
whitebike            2017-11-16 15:10:05 0
whitebike            2017-11-16 16:08:57 1
whitebike            2017-11-16 16:16:15 0
whitebike            2017-11-16 16:23:21 1
whitebike            2017-11-16 16:55:10 0
whitebike            2017-11-17 12:05:27 1
whitebike            2017-11-17 13:28:54 0
whitebike            2017-11-19 19:45:49 1
whitebike            2017-11-19 20:07:56 0
whitebike            2017-11-21 17:21:20 1
whitebike            2017-11-21 17:24:49 0
artsin               2017-11-23 18:28:58 1
artsin               2017-11-23 18:29:03 0
artsin               2017-11-23 18:29:32 0
artsin               2017-11-23 18:29:37 0
artsin               2017-11-23 18:31:00 1
artsin               2017-11-23 18:31:03 0
coockie              2017-11-27 20:05:59 1
coockie              2017-11-27 21:01:01 0
coockie              2017-11-29 08:40:57 1
coockie              2017-11-29 08:48:00 0
whitebike            2017-11-30 18:04:44 1
whitebike            2017-11-30 18:07:18 0
whitebike            2017-11-30 19:18:00 1
artsin               2017-12-02 15:06:28 0
artsin               2017-12-02 15:06:31 1
whitebike            2017-12-02 16:08:38 0
whitebike            2017-12-02 17:01:36 1
whitebike            2017-12-02 17:01:46 0
whitebike            2017-12-02 17:31:16 1
whitebike            2017-12-02 17:35:03 0
artsin               2017-12-02 18:04:22 1
artsin               2017-12-02 18:04:25 0
whitebike            2017-12-02 18:53:13 1
whitebike            2017-12-02 18:55:33 0
coockie              2017-12-03 11:17:26 1
coockie              2017-12-03 11:31:40 0
coockie              2017-12-03 16:01:23 1
coockie              2017-12-03 17:09:31 0
whitebike            2017-12-03 17:36:01 1
whitebike            2017-12-03 18:11:56 0
whitebike            2017-12-09 15:41:15 1
whitebike            2017-12-09 15:48:59 0
coockie              2017-12-10 17:16:13 1
coockie              2017-12-10 18:20:51 0
whitebike            2017-12-12 17:00:58 1
whitebike            2017-12-12 17:04:45 0
coockie              2017-12-14 08:21:14 1
coockie              2017-12-14 08:34:20 0
coockie              2017-12-24 15:55:22 1
coockie              2017-12-24 15:58:37 0
coockie              2017-12-24 16:20:03 1
coockie              2017-12-24 16:25:35 0
coockie              2017-12-24 17:20:04 1
coockie              2017-12-24 18:13:41 0
coockie              2017-12-24 18:52:10 1
coockie              2017-12-24 19:52:21 0
unknown              2018-01-02 16:20:47 0
unknown              2018-01-02 16:20:48 0
unknown              2018-01-02 16:20:59 0
whitebike            2018-01-02 16:21:58 1
whitebike            2018-01-02 17:17:50 0
whitebike            2018-01-02 19:15:44 1
whitebike            2018-01-02 19:24:32 0
whitebike            2018-01-02 19:25:20 1
whitebike            2018-01-02 19:26:33 0
whitebike            2018-01-02 19:32:56 1
whitebike            2018-01-02 19:39:27 0
whitebike            2018-01-02 19:50:35 1
whitebike            2018-01-02 19:59:33 0
whitebike            2018-01-02 20:12:52 1
whitebike            2018-01-02 20:40:14 0
doroshenko           2018-01-03 10:52:48 1
doroshenko           2018-01-03 11:29:10 0
unknown              2018-01-03 15:46:12 0
whitebike            2018-01-03 15:46:17 1
whitebike            2018-01-03 15:46:21 0
whitebike            2018-01-03 16:04:12 1
whitebike            2018-01-03 17:07:17 0
whitebike            2018-01-03 17:18:50 1
whitebike            2018-01-03 17:54:14 0
whitebike            2018-01-03 18:03:37 1
whitebike            2018-01-03 18:07:41 0
whitebike            2018-01-03 19:52:30 1
whitebike            2018-01-03 20:26:39 0
whitebike            2018-01-04 12:45:07 1
whitebike            2018-01-04 12:45:27 0
whitebike            2018-01-04 13:00:38 1
whitebike            2018-01-04 13:14:38 0
whitebike            2018-01-04 13:32:56 1
whitebike            2018-01-04 15:01:53 0
ostapsky             2018-01-06 18:14:41 1
ostapsky             2018-01-06 19:27:15 0
whitebike            2018-01-09 15:37:48 1
whitebike            2018-01-09 15:38:04 0
whitebike            2018-01-09 15:40:54 1
whitebike            2018-01-09 15:49:34 0
coockie              2018-01-13 14:37:01 1
coockie              2018-01-13 14:47:24 0
artsin               2018-01-14 08:47:02 1
artsin               2018-01-14 08:47:05 0
coockie              2018-01-14 17:18:07 1
coockie              2018-01-14 17:30:41 0
whitebike            2018-01-15 09:22:04 1
whitebike            2018-01-15 09:26:11 0
whitebike            2018-01-15 09:29:04 1
whitebike            2018-01-15 09:36:17 0
whitebike            2018-01-15 09:39:56 1
whitebike            2018-01-15 09:42:24 0
whitebike            2018-01-15 14:09:11 1
whitebike            2018-01-15 14:36:42 0
whitebike            2018-01-15 16:03:18 1
whitebike            2018-01-15 16:14:35 0
coockie              2018-01-15 19:45:08 1
coockie              2018-01-15 19:53:53 0
ostapsky             2018-01-18 20:02:13 1
ostapsky             2018-01-18 20:18:06 0
unknown              2018-01-20 17:31:41 0
unknown              2018-01-20 17:31:45 0
unknown              2018-01-20 17:35:37 1
unknown              2018-01-20 17:42:18 0
unknown              2018-01-20 17:50:26 1
unknown              2018-01-20 18:25:05 0
unknown              2018-01-20 18:38:14 1
unknown              2018-01-20 19:02:04 0
unknown              2018-01-20 19:04:32 1
unknown              2018-01-20 20:18:57 0
whitebike            2018-01-23 17:59:28 1
whitebike            2018-01-23 18:02:06 0
whitebike            2018-01-23 20:24:45 1
whitebike            2018-01-23 20:31:01 0
mlis                 2018-01-25 13:51:50 1
mlis                 2018-01-25 14:02:23 0
mlis                 2018-01-25 14:09:22 1
mlis                 2018-01-25 14:16:05 0
mlis                 2018-01-25 15:37:31 1
mlis                 2018-01-25 15:44:15 0
whitebike            2018-01-25 17:55:13 1
whitebike            2018-01-25 17:58:30 0
whitebike            2018-01-25 18:10:28 1
whitebike            2018-01-25 18:18:54 0
whitebike            2018-01-25 18:37:45 1
whitebike            2018-01-25 18:46:50 0
whitebike            2018-01-25 19:12:37 1
whitebike            2018-01-25 19:14:17 0
whitebike            2018-01-25 19:23:02 1
whitebike            2018-01-25 19:33:16 0
whitebike            2018-01-25 20:07:22 1
whitebike            2018-01-25 20:13:38 0
artsin               2018-01-25 20:29:10 1
artsin               2018-01-25 20:50:01 0
artsin               2018-01-25 20:54:11 1
artsin               2018-01-25 21:00:54 0
ostapsky             2018-01-26 13:22:32 1
ostapsky             2018-01-26 14:29:32 0
Alex Pichkorsky      2018-01-26 14:31:34 1
Alex Pichkorsky      2018-01-26 14:31:46 0
Alex Pichkorsky      2018-01-26 14:33:19 1
Alex Pichkorsky      2018-01-26 14:33:29 0
Alex Pichkorsky      2018-01-26 14:51:43 1
Alex Pichkorsky      2018-01-26 15:13:41 0
mlis                 2018-01-28 10:27:29 1
mlis                 2018-01-28 11:10:03 0
mlis                 2018-01-28 11:24:56 1
mlis                 2018-01-28 11:35:40 0
mlis                 2018-01-28 11:36:49 1
mlis                 2018-01-28 11:37:36 0
mlis                 2018-01-28 14:09:39 1
mlis                 2018-01-28 14:14:45 0
whitebike            2018-01-28 15:01:21 1
whitebike            2018-01-28 15:31:44 0
whitebike            2018-01-28 15:37:58 1
whitebike            2018-01-28 15:46:17 0
whitebike            2018-01-28 17:29:18 1
whitebike            2018-01-28 17:41:50 0
whitebike            2018-01-28 17:54:11 1
whitebike            2018-01-28 17:56:18 0
whitebike            2018-01-28 18:05:54 1
whitebike            2018-01-28 18:07:25 0
whitebike            2018-01-28 18:10:46 1
whitebike            2018-01-28 18:11:31 0
whitebike            2018-01-28 18:14:49 1
whitebike            2018-01-28 18:15:55 0
whitebike            2018-01-28 18:20:44 1
whitebike            2018-01-28 19:06:52 0
whitebike            2018-01-28 19:09:32 1
whitebike            2018-01-28 19:21:27 0
whitebike            2018-01-28 19:24:36 1
whitebike            2018-01-28 20:13:35 0
whitebike            2018-01-30 16:46:32 1
whitebike            2018-01-30 16:55:51 0
whitebike            2018-01-30 17:11:10 1
whitebike            2018-01-30 17:14:14 0
whitebike            2018-01-30 17:28:33 1
whitebike            2018-01-30 17:50:27 0
whitebike            2018-01-30 17:52:22 1
whitebike            2018-01-30 17:55:04 0
whitebike            2018-01-30 18:09:58 1
whitebike            2018-01-30 18:17:29 0
whitebike            2018-01-30 18:17:51 1
whitebike            2018-01-30 18:20:04 0
mlis                 2018-01-31 11:08:11 1
mlis                 2018-01-31 11:48:06 0
mlis                 2018-01-31 11:53:51 1
mlis                 2018-01-31 12:28:47 0
nikopol              2018-01-31 13:48:26 1
nikopol              2018-01-31 13:48:55 0
coockie              2018-01-31 19:20:24 1
coockie              2018-01-31 19:29:53 0
whitebike            2018-02-01 14:30:16 1
whitebike            2018-02-01 15:05:02 0
whitebike            2018-02-01 15:16:19 1
whitebike            2018-02-01 15:54:16 0
whitebike            2018-02-01 16:21:08 1
whitebike            2018-02-01 16:28:33 0
whitebike            2018-02-01 17:21:20 1
whitebike            2018-02-01 18:09:05 0
whitebike            2018-02-02 10:25:59 1
whitebike            2018-02-02 10:52:04 0
whitebike            2018-02-02 17:58:27 1
whitebike            2018-02-02 18:08:47 0
pavlosh              2018-02-03 16:05:31 1
pavlosh              2018-02-03 16:08:10 0
nikopol              2018-02-04 12:56:38 1
nikopol              2018-02-04 12:57:14 0
artsin               2018-02-04 13:14:27 1
artsin               2018-02-04 13:15:43 0
nikopol              2018-02-04 13:19:51 1
nikopol              2018-02-04 13:44:41 0
mlis                 2018-02-07 11:51:31 1
mlis                 2018-02-07 11:59:29 0
nikopol              2018-02-08 11:25:05 1
nikopol              2018-02-08 11:43:09 0
mlis                 2018-02-08 12:13:11 1
mlis                 2018-02-08 12:17:17 0
nikopol              2018-02-08 12:35:53 1
nikopol              2018-02-08 12:50:55 0
nikopol              2018-02-08 13:11:06 1
nikopol              2018-02-08 13:43:45 0
nikopol              2018-02-08 13:52:43 1
nikopol              2018-02-08 13:55:37 0
ostapsky             2018-02-12 11:05:49 1
ostapsky             2018-02-12 14:14:36 0
unknown              2018-02-13 18:40:55 1
unknown              2018-02-13 20:07:56 0
unknown              2018-02-13 20:09:19 1
unknown              2018-02-13 20:16:59 0
unknown              2018-02-13 20:18:41 1
unknown              2018-02-13 20:20:57 0
whitebike            2018-02-14 16:33:35 1
whitebike            2018-02-14 16:45:24 0
whitebike            2018-02-14 16:47:34 1
whitebike            2018-02-14 16:51:10 0
whitebike            2018-02-14 19:39:27 1
whitebike            2018-02-14 19:51:05 0
ostapsky             2018-02-15 12:13:14 1
ostapsky             2018-02-15 13:12:36 0
ostapsky             2018-02-15 14:32:43 1
ostapsky             2018-02-15 15:27:10 0
whitebike            2018-02-15 15:27:12 1
whitebike            2018-02-15 15:51:17 0
whitebike            2018-02-15 15:54:09 1
whitebike            2018-02-15 16:02:47 0
whitebike            2018-02-15 16:15:32 1
whitebike            2018-02-15 16:19:47 0
whitebike            2018-02-15 18:17:34 1
whitebike            2018-02-15 18:31:59 0
whitebike            2018-02-15 18:38:27 1
whitebike            2018-02-15 19:00:15 0
whitebike            2018-02-15 19:06:02 1
whitebike            2018-02-15 19:21:37 0
coockie              2018-02-15 19:23:31 1
coockie              2018-02-15 19:30:57 0
whitebike            2018-02-16 15:54:16 1
whitebike            2018-02-16 16:02:39 0
whitebike            2018-02-16 19:11:39 1
whitebike            2018-02-16 19:35:48 0
whitebike            2018-02-16 20:25:58 1
whitebike            2018-02-16 20:32:05 0
nikopol              2018-02-17 15:08:52 1
nikopol              2018-02-17 16:56:26 0
whitebike            2018-02-18 14:47:46 1
whitebike            2018-02-18 14:55:47 0
whitebike            2018-02-18 15:25:12 1
whitebike            2018-02-18 16:00:07 0
whitebike            2018-02-18 16:05:45 1
whitebike            2018-02-18 16:05:47 0
whitebike            2018-02-18 16:15:40 1
whitebike            2018-02-18 16:15:49 0
whitebike            2018-02-18 16:48:01 1
whitebike            2018-02-18 16:49:18 0
whitebike            2018-02-24 16:15:29 1
whitebike            2018-02-24 16:19:08 0
whitebike            2018-02-24 16:22:41 1
whitebike            2018-02-24 16:38:16 0
whitebike            2018-03-06 13:20:49 1
whitebike            2018-03-06 13:21:06 0
ostapsky             2018-03-06 16:06:54 1
ostapsky             2018-03-06 16:54:29 0
whitebike            2018-03-07 19:12:05 1
whitebike            2018-03-07 19:23:58 0
whitebike            2018-03-09 17:06:14 1
whitebike            2018-03-09 17:06:20 0
whitebike            2018-03-09 17:48:08 1
whitebike            2018-03-09 18:31:35 0
artsin               2018-03-11 11:57:40 1
artsin               2018-03-11 17:14:53 0
whitebike            2018-03-11 17:26:36 1
whitebike            2018-03-11 18:40:09 0
whitebike            2018-03-12 21:31:07 1
whitebike            2018-03-12 21:44:42 0
nikopol              2018-03-13 12:04:37 1
nikopol              2018-03-13 12:15:35 0
nikopol              2018-03-13 12:33:29 1
nikopol              2018-03-13 13:11:22 0
nikopol              2018-03-13 13:48:00 1
nikopol              2018-03-13 14:37:31 0
ostapsky             2018-03-13 14:37:35 1
ostapsky             2018-03-13 19:38:29 0
ostapsky             2018-03-14 19:29:07 1
ostapsky             2018-03-14 19:54:05 0
ostapsky             2018-03-17 13:51:42 1
ostapsky             2018-03-17 15:21:32 0
artsin               2018-03-17 15:22:31 1
artsin               2018-03-17 15:42:06 0
artsin               2018-03-17 22:03:01 1
artsin               2018-03-17 23:11:40 0
ostapsky             2018-03-18 17:22:19 1
ostapsky             2018-03-18 17:36:40 0
pavlosh              2018-03-21 17:51:02 1
pavlosh              2018-03-21 18:15:24 0
whitebike            2018-03-22 16:46:24 1
whitebike            2018-03-22 17:21:50 0
whitebike            2018-03-22 18:26:53 1
whitebike            2018-03-22 18:27:36 0
whitebike            2018-03-22 18:28:23 1
whitebike            2018-03-22 18:28:39 0
whitebike            2018-03-22 18:29:49 1
whitebike            2018-03-22 18:30:41 0
whitebike            2018-03-22 18:32:43 1
whitebike            2018-03-22 19:27:44 0
whitebike            2018-03-22 19:40:51 1
whitebike            2018-03-22 19:50:21 0
nikopol              2018-03-23 11:53:29 1
nikopol              2018-03-23 12:18:16 0
nikopol              2018-03-23 12:18:19 1
nikopol              2018-03-23 12:29:53 0
ostapsky             2018-03-24 13:44:24 1
ostapsky             2018-03-24 13:51:26 0
whitebike            2018-03-24 19:33:48 1
whitebike            2018-03-24 19:49:47 0
whitebike            2018-03-24 20:25:16 1
whitebike            2018-03-24 20:45:40 0
whitebike            2018-03-26 21:50:49 1
whitebike            2018-03-26 21:54:08 0
mlis                 2018-03-28 09:59:02 1
mlis                 2018-03-28 10:01:21 0
mlis                 2018-03-28 10:06:08 1
mlis                 2018-03-28 10:09:00 0
mlis                 2018-03-28 10:32:52 1
mlis                 2018-03-28 11:28:42 0
whitebike            2018-03-28 19:52:32 1
whitebike            2018-03-28 20:56:07 0
unknown              2018-03-28 21:22:51 1
unknown              2018-03-28 22:59:30 0
nikopol              2018-03-29 14:45:24 1
nikopol              2018-03-29 14:45:32 0
ostapsky             2018-03-29 16:19:44 1
ostapsky             2018-03-29 16:58:59 0
mlis                 2018-03-29 18:02:39 1
mlis                 2018-03-29 19:08:22 0
unknown              2018-03-29 19:08:56 1
unknown              2018-03-29 22:37:43 0
mlis                 2018-03-30 11:14:32 1
mlis                 2018-03-30 11:19:31 0
mlis                 2018-03-30 12:57:26 1
mlis                 2018-03-30 13:05:28 0
mlis                 2018-03-30 13:09:46 1
mlis                 2018-03-30 14:59:30 0
mlis                 2018-03-30 15:57:41 1
mlis                 2018-03-30 16:05:07 0
whitebike            2018-03-30 18:03:14 1
whitebike            2018-03-30 18:37:05 0
whitebike            2018-03-30 19:40:29 1
whitebike            2018-03-30 20:04:16 0
whitebike            2018-03-31 18:23:10 1
whitebike            2018-03-31 19:11:13 0
whitebike            2018-03-31 20:37:01 1
whitebike            2018-03-31 21:24:26 0
whitebike            2018-04-01 18:31:21 1
whitebike            2018-04-01 19:08:18 0
whitebike            2018-04-01 19:21:41 1
whitebike            2018-04-01 19:32:36 0
whitebike            2018-04-01 19:37:08 1
whitebike            2018-04-01 19:49:57 0
whitebike            2018-04-02 15:13:30 1
whitebike            2018-04-02 15:20:10 0
whitebike            2018-04-02 15:24:32 1
whitebike            2018-04-02 15:39:41 0
whitebike            2018-04-02 15:53:56 1
whitebike            2018-04-02 16:34:12 0
whitebike            2018-04-02 16:38:01 1
whitebike            2018-04-02 16:40:02 0
whitebike            2018-04-02 16:42:36 1
whitebike            2018-04-02 16:56:44 0
whitebike            2018-04-02 16:57:56 1
whitebike            2018-04-02 16:59:58 0
whitebike            2018-04-02 17:02:45 1
whitebike            2018-04-02 17:17:23 0
whitebike            2018-04-02 17:37:25 1
whitebike            2018-04-02 17:50:30 0
mlis                 2018-04-03 11:35:50 1
mlis                 2018-04-03 11:40:48 0
tkachuk              2018-04-04 18:41:26 1
tkachuk              2018-04-04 19:44:55 0
unknown              2018-04-04 19:45:13 1
unknown              2018-04-04 19:57:20 0
unknown              2018-04-04 20:37:28 1
unknown              2018-04-04 21:23:25 0
unknown              2018-04-04 21:29:38 1
unknown              2018-04-04 23:11:09 0
whitebike            2018-04-05 19:20:35 1
whitebike            2018-04-05 19:51:48 0
whitebike            2018-04-05 19:56:10 1
whitebike            2018-04-05 20:22:52 0
whitebike            2018-04-05 20:34:38 1
whitebike            2018-04-05 21:04:44 0
whitebike            2018-04-05 21:25:06 1
whitebike            2018-04-05 21:45:50 0
whitebike            2018-04-05 22:01:06 1
whitebike            2018-04-05 22:39:10 0
whitebike            2018-04-05 22:42:51 1
whitebike            2018-04-05 22:46:06 0
whitebike            2018-04-05 22:47:58 1
whitebike            2018-04-05 22:50:54 0
whitebike            2018-04-05 22:51:48 1
whitebike            2018-04-05 22:59:42 0
ostapsky             2018-04-06 13:11:55 1
ostapsky             2018-04-06 15:42:06 0
ostapsky             2018-04-06 16:08:38 1
ostapsky             2018-04-06 17:34:22 0
whitebike            2018-04-06 19:06:05 1
whitebike            2018-04-06 19:06:27 0
whitebike            2018-04-06 19:10:54 1
whitebike            2018-04-06 19:11:43 0
whitebike            2018-04-06 19:16:24 1
whitebike            2018-04-06 20:01:52 0
whitebike            2018-04-06 20:05:31 1
whitebike            2018-04-06 20:15:45 0
whitebike            2018-04-06 20:16:32 1
whitebike            2018-04-06 20:31:02 0
whitebike            2018-04-06 20:53:19 1
whitebike            2018-04-06 21:25:13 0
whitebike            2018-04-06 21:25:55 1
whitebike            2018-04-06 21:26:51 0
whitebike            2018-04-06 21:34:01 1
whitebike            2018-04-06 21:44:51 0
unknown              2018-04-06 22:13:01 0
whitebike            2018-04-06 22:13:06 1
whitebike            2018-04-06 22:24:42 0
tkachuk              2018-04-09 19:26:42 1
tkachuk              2018-04-09 19:27:04 0
tkachuk              2018-04-09 19:27:06 1
tkachuk              2018-04-09 21:59:31 0
ostapsky             2018-04-10 14:19:44 1
ostapsky             2018-04-10 16:12:11 0
ostapsky             2018-04-10 16:16:44 1
ostapsky             2018-04-10 16:59:24 0
ostapsky             2018-04-11 19:08:50 1
ostapsky             2018-04-11 20:54:44 0
ostapsky             2018-04-12 10:53:54 1
ostapsky             2018-04-12 11:22:11 0
mlis                 2018-04-12 12:32:51 1
mlis                 2018-04-12 12:45:36 0
ostapsky             2018-04-12 14:47:57 1
ostapsky             2018-04-12 16:40:59 0
ostapsky             2018-04-12 18:22:09 1
ostapsky             2018-04-12 19:22:38 0
ostapsky             2018-04-12 19:38:52 1
ostapsky             2018-04-12 21:08:05 0
ostapsky             2018-04-12 21:22:02 1
ostapsky             2018-04-12 21:49:31 0
mlis                 2018-04-13 11:52:12 1
mlis                 2018-04-13 12:00:35 0
mlis                 2018-04-13 13:01:21 1
mlis                 2018-04-13 13:02:05 0
tkachuk              2018-04-14 12:01:54 1
tkachuk              2018-04-14 12:16:56 0
tkachuk              2018-04-14 18:35:24 1
tkachuk              2018-04-14 18:50:36 0
whitebike            2018-04-15 16:54:20 1
whitebike            2018-04-15 16:54:35 0
whitebike            2018-04-15 16:56:39 1
whitebike            2018-04-15 17:02:31 0
whitebike            2018-04-15 17:04:36 1
whitebike            2018-04-15 17:06:51 0
whitebike            2018-04-15 17:34:57 1
whitebike            2018-04-15 17:40:16 0
mlis                 2018-04-16 14:29:47 1
mlis                 2018-04-16 14:36:04 0
ostapsky             2018-04-16 20:06:35 1
ostapsky             2018-04-16 20:16:06 0
ostapsky             2018-04-24 15:47:56 1
ostapsky             2018-04-24 19:03:40 0
ostapsky             2018-05-02 17:38:17 1
ostapsky             2018-05-02 17:57:31 0
ostapsky             2018-05-08 17:06:30 1
ostapsky             2018-05-08 18:39:26 0
ostapsky             2018-05-09 13:58:01 1
ostapsky             2018-05-09 15:17:16 0
ostapsky             2018-05-09 17:20:37 1
ostapsky             2018-05-09 17:39:48 0
nikopol              2018-05-10 13:56:17 1
nikopol              2018-05-10 14:03:41 0
nikopol              2018-05-10 14:05:18 1
nikopol              2018-05-10 14:19:16 0
whitebike            2018-05-10 18:58:52 1
whitebike            2018-05-10 19:01:03 0
whitebike            2018-05-10 19:03:38 1
whitebike            2018-05-10 19:20:07 0
whitebike            2018-05-10 19:28:18 1
whitebike            2018-05-10 19:29:23 0
sluggard             2018-05-12 17:36:46 1
sluggard             2018-05-12 17:38:06 0
sluggard             2018-05-12 17:38:43 1
sluggard             2018-05-12 17:39:56 0
mlis                 2018-05-14 17:16:51 1
mlis                 2018-05-14 17:42:07 0
ostapsky             2018-05-15 11:22:37 1
ostapsky             2018-05-15 11:39:10 0
ostapsky             2018-05-15 15:22:35 1
ostapsky             2018-05-15 16:11:37 0
ostapsky             2018-05-15 16:39:15 1
ostapsky             2018-05-15 17:15:13 0
whitebike            2018-05-16 15:27:57 1
whitebike            2018-05-16 15:53:15 0
ostapsky             2018-05-18 13:14:11 1
ostapsky             2018-05-18 13:29:22 0
mlis                 2018-05-18 13:35:18 1
mlis                 2018-05-18 13:39:18 0
ostapsky             2018-05-18 14:19:38 1
whitebike            2018-05-18 16:02:29 0
whitebike            2018-05-18 16:02:31 1
whitebike            2018-05-18 16:21:10 0
whitebike            2018-05-18 16:28:35 1
whitebike            2018-05-18 17:18:26 0
artsin               2018-05-19 19:17:41 1
artsin               2018-05-19 19:19:55 0
sluggard             2018-05-20 15:13:26 1
sluggard             2018-05-20 15:13:45 0
sluggard             2018-05-20 15:14:43 1
sluggard             2018-05-20 15:24:57 0
sluggard             2018-05-20 16:19:10 1
sluggard             2018-05-20 16:27:09 0
sluggard             2018-05-20 16:50:13 1
sluggard             2018-05-20 17:15:42 0
sluggard             2018-05-20 17:19:02 1
sluggard             2018-05-20 18:32:59 0
sluggard             2018-05-20 18:36:39 1
sluggard             2018-05-20 19:59:25 0
ostapsky             2018-05-21 14:20:22 1
ostapsky             2018-05-21 15:05:01 0
ostapsky             2018-05-21 15:12:12 1
ostapsky             2018-05-21 17:57:37 0
ostapsky             2018-05-21 18:23:28 1
ostapsky             2018-05-21 18:33:37 0
ostapsky             2018-05-22 12:44:20 1
ostapsky             2018-05-22 14:06:57 0
ostapsky             2018-05-22 14:06:59 1
ostapsky             2018-05-22 14:51:28 0
ostapsky             2018-05-22 17:05:39 1
ostapsky             2018-05-22 19:13:41 0
ostapsky             2018-05-23 18:21:39 1
ostapsky             2018-05-23 20:35:08 0
ostapsky             2018-05-23 20:36:14 1
ostapsky             2018-05-23 20:40:20 0
whitebike            2018-05-26 18:05:13 1
whitebike            2018-05-26 18:16:12 0
ostapsky             2018-05-30 14:27:04 1
ostapsky             2018-05-30 14:43:55 0
mlis                 2018-05-31 17:04:21 1
mlis                 2018-05-31 17:05:01 0
mlis                 2018-05-31 17:05:03 1
mlis                 2018-05-31 17:22:46 0
ostapsky             2018-05-31 17:31:55 1
ostapsky             2018-05-31 17:37:02 0
ostapsky             2018-05-31 17:53:10 1
ostapsky             2018-05-31 18:32:47 0
ostapsky             2018-05-31 18:32:50 1
ostapsky             2018-05-31 19:04:53 0
ostapsky             2018-05-31 19:32:07 1
ostapsky             2018-05-31 19:59:45 0
mlis                 2018-05-31 20:37:42 1
mlis                 2018-05-31 20:48:39 0
ostapsky             2018-06-01 11:15:30 1
ostapsky             2018-06-01 11:27:16 0
ostapsky             2018-06-01 11:29:15 1
ostapsky             2018-06-01 11:38:43 0
mlis                 2018-06-01 12:13:14 1
mlis                 2018-06-01 12:14:26 0
mlis                 2018-06-01 12:15:50 1
mlis                 2018-06-01 12:21:06 0
mlis                 2018-06-02 10:45:03 1
mlis                 2018-06-02 10:54:06 0
ostapsky             2018-06-02 17:33:24 1
ostapsky             2018-06-02 18:09:57 0
nikopol              2018-06-05 16:36:28 1
nikopol              2018-06-05 18:06:53 0
nikopol              2018-06-06 15:32:44 1
nikopol              2018-06-06 16:28:33 0
ostapsky             2018-06-07 17:48:50 1
ostapsky             2018-06-07 18:40:48 0
whitebike            2018-06-10 15:55:56 1
whitebike            2018-06-10 16:52:30 0
whitebike            2018-06-10 16:54:50 1
whitebike            2018-06-10 16:55:15 0
whitebike            2018-06-10 16:57:28 1
whitebike            2018-06-10 17:09:55 0
whitebike            2018-06-10 17:24:26 1
whitebike            2018-06-10 17:34:34 0
whitebike            2018-06-10 17:41:07 1
whitebike            2018-06-10 17:46:08 0
ostapsky             2018-06-11 17:33:15 1
ostapsky             2018-06-11 18:04:33 0
whitebike            2018-06-13 15:40:00 1
whitebike            2018-06-13 16:14:36 0
diver                2018-06-13 16:28:07 1
diver                2018-06-13 16:58:38 0
diver                2018-06-13 18:16:51 1
whitebike            2018-06-13 18:49:14 0
whitebike            2018-06-13 18:49:24 1
whitebike            2018-06-13 20:33:38 0
diver                2018-06-14 13:36:19 1
diver                2018-06-14 13:40:31 0
diver                2018-06-14 16:06:52 1
diver                2018-06-14 19:41:44 0
diver                2018-06-15 13:57:24 1
diver                2018-06-15 18:04:42 0
ostapsky             2018-06-15 18:14:05 1
ostapsky             2018-06-15 19:52:47 0
diver                2018-06-19 12:14:40 1
diver                2018-06-19 16:17:50 0
diver                2018-06-22 14:04:38 1
diver                2018-06-22 14:12:55 0
diver                2018-06-23 13:12:26 1
diver                2018-06-23 16:27:50 0
ostapsky             2018-06-27 13:44:40 1
ostapsky             2018-06-27 16:45:07 0
whitebike            2018-06-27 22:01:05 1
whitebike            2018-06-27 22:23:02 0
ostapsky             2018-06-28 19:07:09 1
ostapsky             2018-06-28 20:00:17 0
mlis                 2018-07-02 11:27:20 1
mlis                 2018-07-02 11:53:04 0
mlis                 2018-07-02 13:40:26 1
mlis                 2018-07-02 15:48:26 0
ostapsky             2018-07-02 18:17:09 1
ostapsky             2018-07-02 19:45:19 0
mlis                 2018-07-03 14:37:19 1
mlis                 2018-07-03 15:12:51 0
mlis                 2018-07-03 17:10:57 1
mlis                 2018-07-03 17:17:45 0
whitebike            2018-07-06 18:40:28 1
whitebike            2018-07-06 19:20:10 0
mlis                 2018-07-07 13:38:41 1
mlis                 2018-07-07 13:51:28 0
mlis                 2018-07-07 17:07:49 1
mlis                 2018-07-07 17:10:28 0
mlis                 2018-07-07 17:23:01 1
mlis                 2018-07-07 17:26:26 0
whitebike            2018-07-09 20:26:22 1
whitebike            2018-07-09 20:44:19 0
nikopol              2018-07-12 16:14:08 1
whitebike            2018-07-12 18:45:20 0
whitebike            2018-07-12 19:43:41 1
whitebike            2018-07-12 19:53:05 0
whitebike            2018-07-12 20:32:31 1
whitebike            2018-07-12 22:50:31 0
nikopol              2018-07-13 17:27:56 1
ostapsky             2018-07-13 17:54:47 0
whitebike            2018-07-14 17:35:58 1
whitebike            2018-07-14 17:37:30 0
whitebike            2018-07-14 17:46:05 1
whitebike            2018-07-14 18:10:17 0
whitebike            2018-07-14 18:51:10 1
whitebike            2018-07-14 19:06:01 0
whitebike            2018-07-14 19:06:35 1
whitebike            2018-07-14 19:07:47 0
mlis                 2018-07-15 13:29:39 1
mlis                 2018-07-15 14:06:18 0
whitebike            2018-07-15 20:43:38 1
whitebike            2018-07-15 21:22:43 0
whitebike            2018-07-15 21:34:31 1
whitebike            2018-07-15 21:38:11 0
whitebike            2018-07-15 21:40:26 1
whitebike            2018-07-15 21:48:18 0
whitebike            2018-07-17 18:12:37 1
whitebike            2018-07-17 18:46:33 0
whitebike            2018-07-17 18:50:58 1
whitebike            2018-07-17 18:54:31 0
diver                2018-07-20 13:55:46 1
diver                2018-07-20 14:04:31 0
diver                2018-07-20 17:52:21 1
diver                2018-07-20 20:08:53 0
diver                2018-07-20 20:09:50 1
diver                2018-07-20 20:18:00 0
ostapsky             2018-07-24 16:25:46 1
ostapsky             2018-07-24 19:36:17 0
ostapsky             2018-07-24 19:38:06 1
ostapsky             2018-07-24 19:56:33 0
nikopol              2018-07-25 17:51:14 1
nikopol              2018-07-25 19:38:18 0
whitebike            2018-07-25 21:38:55 1
whitebike            2018-07-25 21:55:01 0
nikopol              2018-07-26 14:56:48 1
nikopol              2018-07-26 16:20:37 0
ostapsky             2018-07-28 15:52:42 1
whitebike            2018-07-28 20:39:51 0
ostapsky             2018-07-30 15:52:02 1
ostapsky             2018-07-30 16:54:41 0
nikopol              2018-07-30 17:53:38 1
nikopol              2018-07-30 18:39:01 0
nikopol              2018-07-30 18:39:54 1
nikopol              2018-07-30 19:11:57 0
unknown              2018-07-31 19:23:49 1
unknown              2018-07-31 20:58:53 0
unknown              2018-08-01 18:07:01 1
unknown              2018-08-01 19:52:36 0
whitebike            2018-08-02 16:17:02 1
whitebike            2018-08-02 16:55:55 0
nikopol              2018-08-03 15:07:48 1
nikopol              2018-08-03 15:17:28 0
ostapsky             2018-08-03 15:48:54 1
ostapsky             2018-08-03 17:06:38 0
ostapsky             2018-08-03 18:01:06 1
ostapsky             2018-08-03 18:26:54 0
unknown              2018-08-04 14:30:32 1
unknown              2018-08-04 14:39:09 0
unknown              2018-08-04 16:25:19 1
unknown              2018-08-04 16:27:12 0
unknown              2018-08-04 16:38:51 1
unknown              2018-08-04 16:54:53 0
whitebike            2018-08-06 16:45:40 1
whitebike            2018-08-06 17:16:04 0
whitebike            2018-08-06 17:25:52 1
whitebike            2018-08-06 17:27:55 0
whitebike            2018-08-06 17:55:43 1
whitebike            2018-08-06 19:00:06 0
nikopol              2018-08-07 17:59:56 1
nikopol              2018-08-07 18:29:33 0
unknown              2018-08-07 19:21:38 1
unknown              2018-08-07 19:38:03 0
whitebike            2018-08-07 21:36:58 1
whitebike            2018-08-07 22:30:15 0
whitebike            2018-08-07 22:40:06 1
whitebike            2018-08-07 23:36:47 0
whitebike            2018-08-09 21:31:03 1
whitebike            2018-08-09 21:50:03 0
whitebike            2018-08-09 21:55:04 1
whitebike            2018-08-09 22:04:46 0
nikopol              2018-08-10 16:28:37 1
nikopol              2018-08-10 16:44:24 0
unknown              2018-08-11 11:52:39 1
unknown              2018-08-11 15:10:32 0
unknown              2018-08-12 15:03:45 1
unknown              2018-08-12 19:14:28 0
unknown              2018-08-12 19:15:35 1
unknown              2018-08-12 19:42:38 0
whitebike            2018-08-14 17:50:58 1
whitebike            2018-08-14 18:47:29 0
whitebike            2018-08-16 16:28:28 1
whitebike            2018-08-16 16:46:22 0
whitebike            2018-08-16 16:49:48 1
whitebike            2018-08-16 16:56:15 0
nikopol              2018-08-16 17:52:56 1
nikopol              2018-08-16 19:14:38 0
ostapsky             2018-08-20 13:04:05 1
ostapsky             2018-08-20 13:30:19 0
unknown              2018-08-20 19:31:43 1
unknown              2018-08-20 21:32:52 0
ostapsky             2018-08-22 19:02:20 1
whitebike            2018-08-22 22:23:22 0
nikopol              2018-08-23 18:32:43 1
nikopol              2018-08-23 18:41:11 0
unknown              2018-08-25 18:23:33 1
unknown              2018-08-25 20:51:48 0
unknown              2018-08-25 21:25:40 1
unknown              2018-08-25 21:35:45 0
whitebike            2018-08-26 15:29:56 1
whitebike            2018-08-26 15:50:35 0
whitebike            2018-08-26 17:31:28 1
whitebike            2018-08-26 17:41:24 0
whitebike            2018-08-26 17:42:24 1
whitebike            2018-08-26 17:49:37 0
whitebike            2018-08-27 20:58:33 1
whitebike            2018-08-27 21:17:56 0
whitebike            2018-08-27 21:22:34 1
whitebike            2018-08-27 21:37:01 0
whitebike            2018-08-27 21:56:04 1
whitebike            2018-08-27 23:06:34 0
whitebike            2018-08-29 16:54:38 1
whitebike            2018-08-29 17:10:11 0
whitebike            2018-08-30 14:01:33 1
whitebike            2018-08-30 14:09:54 0
whitebike            2018-08-31 18:31:24 1
whitebike            2018-08-31 18:51:21 0
whitebike            2018-08-31 18:51:48 1
whitebike            2018-08-31 18:53:05 0
whitebike            2018-08-31 19:02:35 1
whitebike            2018-08-31 19:27:27 0
unknown              2018-08-31 19:47:12 1
unknown              2018-08-31 21:58:57 0
whitebike            2018-09-01 14:55:54 1
whitebike            2018-09-01 15:22:05 0
unknown              2018-09-01 18:13:23 1
unknown              2018-09-01 19:48:58 0
whitebike            2018-09-02 20:08:53 1
whitebike            2018-09-02 20:10:39 0
whitebike            2018-09-02 20:11:19 1
whitebike            2018-09-02 20:13:30 0
whitebike            2018-09-03 19:28:25 1
whitebike            2018-09-03 20:28:15 0
whitebike            2018-09-03 20:33:19 1
whitebike            2018-09-03 20:43:28 0
whitebike            2018-09-03 20:52:31 1
whitebike            2018-09-03 21:04:00 0
k_serge              2018-09-04 18:21:08 1
k_serge              2018-09-04 19:17:58 0
whitebike            2018-09-04 19:22:59 1
whitebike            2018-09-04 19:31:55 0
whitebike            2018-09-04 20:21:06 1
whitebike            2018-09-04 20:22:24 0
whitebike            2018-09-05 16:19:21 1
whitebike            2018-09-05 16:42:42 0
whitebike            2018-09-05 16:48:10 1
whitebike            2018-09-05 17:09:48 0
whitebike            2018-09-05 17:10:30 1
whitebike            2018-09-05 17:20:12 0
whitebike            2018-09-05 17:32:18 1
whitebike            2018-09-05 17:42:55 0
whitebike            2018-09-05 17:47:06 1
whitebike            2018-09-05 17:48:30 0
whitebike            2018-09-05 18:42:00 1
whitebike            2018-09-05 19:06:56 0
whitebike            2018-09-05 19:55:25 1
whitebike            2018-09-05 20:20:12 0
whitebike            2018-09-05 20:32:23 1
whitebike            2018-09-05 20:40:58 0
whitebike            2018-09-05 21:04:05 1
whitebike            2018-09-05 21:18:38 0
k_serge              2018-09-09 15:39:14 1
k_serge              2018-09-09 15:46:08 0
whitebike            2018-09-13 20:04:54 1
whitebike            2018-09-13 20:21:55 0
whitebike            2018-09-17 20:33:15 1
whitebike            2018-09-17 20:47:23 0
ostapsky             2018-09-18 15:20:24 1
ostapsky             2018-09-18 15:21:14 0
whitebike            2018-09-19 17:36:18 1
whitebike            2018-09-19 18:08:36 0
whitebike            2018-09-19 18:15:57 1
whitebike            2018-09-19 18:38:28 0
whitebike            2018-09-19 18:53:47 1
whitebike            2018-09-19 20:27:35 0
whitebike            2018-09-19 20:43:17 1
whitebike            2018-09-19 21:41:12 0
whitebike            2018-09-19 21:55:59 1
whitebike            2018-09-19 22:02:46 0
whitebike            2018-09-20 20:11:36 1
whitebike            2018-09-20 20:21:03 0
whitebike            2018-09-20 20:22:50 1
whitebike            2018-09-20 20:29:43 0
whitebike            2018-09-20 20:35:32 1
whitebike            2018-09-20 20:43:45 0
whitebike            2018-09-20 20:43:49 1
whitebike            2018-09-20 20:46:05 0
whitebike            2018-09-20 20:48:33 1
whitebike            2018-09-20 21:09:34 0
artsin               2018-09-21 21:23:14 1
artsin               2018-09-21 21:38:58 0
whitebike            2018-09-23 23:15:01 1
whitebike            2018-09-23 23:32:48 0
whitebike            2018-09-25 21:38:24 1
whitebike            2018-09-25 21:53:29 0
whitebike            2018-09-27 20:28:47 1
unknown              2018-09-27 20:31:30 0
ostapsky             2018-09-28 15:50:52 1
ostapsky             2018-09-28 18:35:21 0
k_serge              2018-09-28 19:07:02 1
k_serge              2018-09-28 20:36:35 0
ostapsky             2018-10-02 17:21:20 1
ostapsky             2018-10-02 17:21:45 0
whitebike            2018-10-02 20:08:59 1
whitebike            2018-10-02 20:14:00 0
whitebike            2018-10-04 20:27:58 1
whitebike            2018-10-04 20:33:20 0
whitebike            2018-10-04 21:14:26 1
whitebike            2018-10-04 21:20:57 0
whitebike            2018-10-08 15:24:51 1
whitebike            2018-10-08 15:48:38 0
nikopol              2018-10-08 19:17:24 1
nikopol              2018-10-08 20:50:20 0
artsin2              2018-10-11 15:41:11 1
artsin2              2018-10-11 16:18:28 0
artsin2              2018-10-11 16:18:33 1
artsin2              2018-10-11 20:11:26 0
artsin2              2018-10-16 20:12:43 1
artsin2              2018-10-16 22:35:58 0
artsin2              2018-10-18 18:37:44 1
artsin2              2018-10-18 22:36:20 0
kotiachiy            2018-10-20 14:44:18 1
kotiachiy            2018-10-20 15:38:54 0
kotiachiy            2018-10-21 14:27:12 1
kotiachiy            2018-10-21 14:39:04 0
kotiachiy            2018-10-21 17:25:20 1
kotiachiy            2018-10-21 17:40:48 0
kotiachiy            2018-10-21 17:52:14 1
kotiachiy            2018-10-21 17:57:49 0
kotiachiy            2018-10-21 18:21:58 1
kotiachiy            2018-10-21 18:29:56 0
kotiachiy            2018-10-21 18:39:18 1
kotiachiy            2018-10-21 19:31:01 0
whitebike            2018-10-22 19:43:56 1
whitebike            2018-10-22 20:14:27 0
whitebike            2018-10-22 22:38:08 1
whitebike            2018-10-22 22:41:38 0
alex_pitertsev       2018-10-23 19:29:49 0
alex_pitertsev       2018-10-23 19:29:51 0
alex_pitertsev       2018-10-23 19:29:59 0
alex_pitertsev       2018-10-23 19:30:07 0
alex_pitertsev       2018-10-23 19:30:17 0
alex_pitertsev       2018-10-23 19:30:24 0
alex_pitertsev       2018-10-23 19:30:27 0
alex_pitertsev       2018-10-23 19:30:37 0
volmir               2018-10-24 20:10:05 1
volmir               2018-10-24 20:10:51 0
whitebike            2018-10-29 20:50:37 1
whitebike            2018-10-29 21:03:34 0
whitebike            2018-10-29 21:23:16 1
whitebike            2018-10-29 21:28:16 0
volmir               2018-10-30 19:56:15 1
volmir               2018-10-30 20:00:13 0
volmir               2018-10-30 20:00:14 1
volmir               2018-10-30 20:18:15 0
nikopol              2018-10-31 17:20:41 1
nikopol              2018-10-31 17:31:53 0
nikopol              2018-10-31 17:31:59 1
nikopol              2018-10-31 17:57:04 0
kotiachiy            2018-11-04 14:44:03 1
kotiachiy            2018-11-04 14:44:14 0
whitebike            2018-11-05 19:45:49 1
whitebike            2018-11-05 19:52:07 0
whitebike            2018-11-05 19:54:12 1
whitebike            2018-11-05 20:00:45 0
whitebike            2018-11-05 20:15:33 1
whitebike            2018-11-05 20:36:54 0
whitebike            2018-11-05 20:44:37 1
whitebike            2018-11-05 20:52:01 0
whitebike            2018-11-05 20:54:49 1
whitebike            2018-11-05 21:10:56 0
whitebike            2018-11-07 22:06:06 1
whitebike            2018-11-07 23:33:48 0
kotiachiy            2018-11-08 19:03:53 1
kotiachiy            2018-11-08 19:04:24 0
kotiachiy            2018-11-08 20:07:55 1
kotiachiy            2018-11-08 21:41:01 0
ostapsky             2018-11-14 20:22:05 1
ostapsky             2018-11-14 20:22:33 0
artsin2              2018-11-19 16:36:05 1
artsin2              2018-11-19 19:29:18 0
artsin2              2018-11-22 22:46:41 1
artsin2              2018-11-27 19:32:38 1
artsin2              2018-11-27 21:50:57 0
kotiachiy            2018-12-01 12:49:57 1
kotiachiy            2018-12-01 13:21:59 0
kotiachiy            2018-12-01 19:12:43 1
kotiachiy            2018-12-01 19:38:18 0
whitebike            2018-12-02 19:06:08 1
whitebike            2018-12-02 19:36:46 0
whitebike            2018-12-02 19:42:21 1
whitebike            2018-12-02 19:45:25 0
whitebike            2018-12-02 20:03:16 1
whitebike            2018-12-02 20:03:57 0
artsin2              2018-12-04 17:35:10 1
artsin2              2018-12-04 17:37:38 0
Dmitriy_Zmey         2018-12-04 17:37:40 1
Dmitriy_Zmey         2018-12-04 17:40:41 0
artsin               2018-12-05 18:01:43 1
artsin               2018-12-05 18:01:52 0
whitebike            2018-12-05 19:19:30 1
whitebike            2018-12-05 19:21:56 0
whitebike            2018-12-05 20:20:37 1
whitebike            2018-12-05 20:20:41 0
kotiachiy            2018-12-05 21:31:07 1
kotiachiy            2018-12-05 21:55:27 0
kotiachiy            2018-12-05 22:12:52 1
kotiachiy            2018-12-05 23:25:05 0
volmir               2018-12-06 19:12:08 1
volmir               2018-12-06 19:43:08 0
artsin               2018-12-07 21:30:33 1
artsin               2018-12-07 23:27:32 0
whitebike            2018-12-11 18:05:53 1
whitebike            2018-12-11 18:10:52 0
volmir               2018-12-11 19:21:25 1
volmir               2018-12-11 19:32:23 0
volmir               2018-12-11 19:56:30 1
volmir               2018-12-11 20:08:46 0
volmir               2018-12-11 20:39:24 1
volmir               2018-12-11 20:54:25 0
whitebike            2018-12-13 17:01:51 1
whitebike            2018-12-13 18:19:00 0
whitebike            2018-12-13 18:26:09 1
whitebike            2018-12-13 18:44:16 0
whitebike            2018-12-13 18:46:24 1
whitebike            2018-12-13 18:59:56 0
pavlosh              2018-12-14 19:51:33 1
pavlosh              2018-12-14 19:51:36 0
whitebike            2018-12-14 20:07:26 1
whitebike            2018-12-14 20:12:30 0
nikopol              2018-12-15 10:53:42 1
nikopol              2018-12-15 11:10:06 0
whitebike            2018-12-15 18:23:38 1
whitebike            2018-12-15 19:01:17 0
whitebike            2018-12-15 19:07:41 1
whitebike            2018-12-15 19:39:36 0
whitebike            2018-12-15 19:43:45 1
whitebike            2018-12-15 21:03:28 0
whitebike            2018-12-15 21:41:58 1
whitebike            2018-12-15 22:22:00 0
volmir               2018-12-16 12:21:37 1
volmir               2018-12-16 12:49:47 0
whitebike            2018-12-17 19:57:07 1
whitebike            2018-12-17 20:28:51 0
whitebike            2018-12-18 17:24:30 1
whitebike            2018-12-18 18:42:38 0
whitebike            2018-12-19 16:44:54 1
whitebike            2018-12-19 16:50:35 0
whitebike            2018-12-19 16:52:50 1
whitebike            2018-12-19 16:55:16 0
whitebike            2018-12-19 16:59:15 1
whitebike            2018-12-19 17:05:38 0
whitebike            2018-12-21 19:10:25 1
whitebike            2018-12-21 19:25:36 0
whitebike            2018-12-23 16:54:42 1
whitebike            2018-12-23 16:59:40 0
whitebike            2018-12-23 17:02:26 1
whitebike            2018-12-23 17:11:13 0
whitebike            2018-12-23 19:40:20 1
whitebike            2018-12-23 19:44:11 0
volmir               2018-12-24 18:16:51 1
volmir               2018-12-24 18:17:37 0
volmir               2018-12-24 18:21:41 1
volmir               2018-12-24 18:38:02 0
volmir               2018-12-24 18:38:24 1
volmir               2018-12-24 18:38:47 0
doroshenko           2018-12-29 15:07:36 1
doroshenko           2018-12-29 15:33:31 0
whitebike            2018-12-29 16:04:39 1
whitebike            2018-12-29 16:47:31 0
doroshenko           2018-12-29 17:33:24 1
doroshenko           2018-12-29 17:33:42 0
doroshenko           2018-12-29 17:34:46 1
doroshenko           2018-12-29 17:38:37 0
whitebike            2019-01-03 17:27:56 1
whitebike            2019-01-03 17:29:08 0
whitebike            2019-01-03 17:40:51 1
whitebike            2019-01-03 17:56:34 0
whitebike            2019-01-09 19:57:16 1
whitebike            2019-01-09 21:46:48 0
whitebike            2019-01-09 21:51:41 1
whitebike            2019-01-09 21:57:30 0
artsin               2019-01-09 22:24:03 1
whitebike            2019-01-09 23:42:22 0
whitebike            2019-01-10 16:08:54 1
whitebike            2019-01-10 16:14:46 0
whitebike            2019-01-10 16:24:44 1
whitebike            2019-01-10 17:26:40 0
